…
 Wen  :1653   Class :character   1st Qu.: 482   1st Qu.:520.1   1st Qu.: 830.9   top right  :4941   neutral:3151   1st Qu.:1910   Class :character  
 Z025 :2802   Mode  :character   Median : 964   Median :524.1   Median : 833.0                      valid  :4695   Median :2001   Mode  :character  
 Z068 :1571                      Mean   :1079   Mean   :524.5   Mean   : 835.2                                     Mean   :2020                     
                                 3rd Qu.:1529   3rd Qu.:528.6   3rd Qu.: 838.9                                     3rd Qu.:2103                     
                                 Max.   :2988   Max.   :629.7   Max.   :1271.3                                     Max.   :2739                     
                                                                                                                   NA's   :534                      
    MS_Order        MS_Start       MS_Duration        MS_Angle         MS_Amp      
 Min.   :1.000   Min.   :   1.0   Min.   : 14.00   Min.   :0.001   Min.   : 3.009  
 1st Qu.:1.000   1st Qu.: 232.0   1st Qu.: 45.00   1st Qu.:1.275   1st Qu.:12.905  
 Median :1.000   Median : 467.0   Median : 62.00   Median :2.517   Median :18.145  
 Mean   :1.517   Mean   : 743.5   Mean   : 60.64   Mean   :2.594   Mean   :17.863  
 3rd Qu.:2.000   3rd Qu.: 932.0   3rd Qu.: 72.00   3rd Qu.:3.369   3rd Qu.:23.270  
 Max.   :9.000   Max.   :2704.0   Max.   :410.00   Max.   :6.283   Max.   :29.998  
 NA's   :3531    NA's   :3531     NA's   :3531     NA's   :3531    NA's   :3531    
# A tibble: 9,811 x 14
   subject session trials TimeCueOn TimeCueOff CueDirection CueValidity ReactionTime Correctness MS_Order MS_Start MS_Duration MS_Angle MS_Amp
   <fct>   <chr>    <dbl>     <dbl>      <dbl> <fct>        <fct>              <dbl> <chr>          <dbl>    <dbl>       <dbl>    <dbl>  <dbl>
 1 Bryce   session      1      524.       833. bottom left  invalid             NaN  <NA>             NaN      NaN         NaN   NaN     NaN  
 2 Bryce   session      2      523.       832. bottom left  valid               NaN  <NA>             NaN      NaN         NaN   NaN     NaN  
 3 Bryce   session      3      521.       831. bottom left  valid              1911. incorrect        NaN      NaN         NaN   NaN     NaN  
 4 Bryce   session      4      520.       830. top right    invalid            2168. incorrect        NaN      NaN         NaN   NaN     NaN  
 5 Bryce   session      5      521.       831. bottom left  invalid            1946. incorrect        NaN      NaN         NaN   NaN     NaN  
 6 Bryce   session      6      521.       831. top right    valid              1925. correct          NaN      NaN         NaN   NaN     NaN  
 7 Bryce   session      7      520.       831. bottom left  neutral            1980. correct            1        1          92     2.71   19.1
 8 Bryce   session      8      521.       831. top right    neutral            1974. correct          NaN      NaN         NaN   NaN     NaN  
 9 Bryce   session      9      521.       831. top right    valid              1981. correct          NaN      NaN         NaN   NaN     NaN  
10 Bryce   session     10      521.       832. bottom left  valid              2315. incorrect        NaN      NaN         NaN   NaN     NaN  
# … with 9,801 more rows
…
